G04 EAGLE Gerber X2 export*
%TF.Part,Single*%
%TF.FileFunction,Copper,L2,Bot,Mixed*%
%TF.FilePolarity,Positive*%
%TF.GenerationSoftware,Autodesk,EAGLE,9.0.1*%
%TF.CreationDate,2018-06-18T02:16:51Z*%
G75*
%MOMM*%
%FSLAX34Y34*%
%LPD*%
%AMOC8*
5,1,8,0,0,1.08239X$1,22.5*%
G01*
%ADD10C,1.879600*%
%ADD11P,2.336880X8X22.500000*%
%ADD12P,1.924489X8X292.500000*%
%ADD13P,0.818720X8X22.500000*%
%ADD14C,0.152400*%

G36*
X1065298Y10164D02*
X1065298Y10164D01*
X1065317Y10162D01*
X1065419Y10184D01*
X1065521Y10200D01*
X1065538Y10210D01*
X1065558Y10214D01*
X1065647Y10267D01*
X1065738Y10316D01*
X1065752Y10330D01*
X1065769Y10340D01*
X1065836Y10419D01*
X1065908Y10494D01*
X1065916Y10512D01*
X1065929Y10527D01*
X1065968Y10623D01*
X1066011Y10717D01*
X1066013Y10737D01*
X1066021Y10755D01*
X1066039Y10922D01*
X1066039Y75394D01*
X1066032Y75441D01*
X1066033Y75489D01*
X1066012Y75562D01*
X1066000Y75637D01*
X1065977Y75679D01*
X1065963Y75725D01*
X1065920Y75787D01*
X1065884Y75854D01*
X1065850Y75887D01*
X1065822Y75926D01*
X1065761Y75971D01*
X1065706Y76024D01*
X1065663Y76044D01*
X1065624Y76072D01*
X1065552Y76095D01*
X1065483Y76127D01*
X1065435Y76132D01*
X1065390Y76147D01*
X1065314Y76146D01*
X1065239Y76154D01*
X1065192Y76144D01*
X1065144Y76143D01*
X1065072Y76118D01*
X1064998Y76102D01*
X1064957Y76077D01*
X1064912Y76061D01*
X1064852Y76015D01*
X1064787Y75976D01*
X1064756Y75939D01*
X1064718Y75910D01*
X1064642Y75806D01*
X1064627Y75789D01*
X1064625Y75783D01*
X1064619Y75775D01*
X1062742Y72524D01*
X1057776Y67558D01*
X1051695Y64047D01*
X1044911Y62229D01*
X1037889Y62229D01*
X1031105Y64047D01*
X1025024Y67558D01*
X1020058Y72524D01*
X1016547Y78605D01*
X1014729Y85389D01*
X1014729Y92411D01*
X1016547Y99195D01*
X1020058Y105276D01*
X1025024Y110242D01*
X1031105Y113753D01*
X1037889Y115571D01*
X1044911Y115571D01*
X1051695Y113753D01*
X1057776Y110242D01*
X1062742Y105276D01*
X1064619Y102025D01*
X1064649Y101988D01*
X1064672Y101946D01*
X1064727Y101894D01*
X1064775Y101835D01*
X1064815Y101810D01*
X1064850Y101776D01*
X1064919Y101745D01*
X1064983Y101704D01*
X1065030Y101693D01*
X1065073Y101673D01*
X1065148Y101665D01*
X1065222Y101647D01*
X1065270Y101651D01*
X1065317Y101646D01*
X1065392Y101662D01*
X1065467Y101669D01*
X1065511Y101688D01*
X1065558Y101698D01*
X1065623Y101737D01*
X1065692Y101767D01*
X1065728Y101800D01*
X1065769Y101824D01*
X1065818Y101882D01*
X1065874Y101933D01*
X1065898Y101975D01*
X1065929Y102011D01*
X1065957Y102081D01*
X1065994Y102148D01*
X1066003Y102195D01*
X1066021Y102239D01*
X1066035Y102368D01*
X1066039Y102389D01*
X1066038Y102396D01*
X1066039Y102406D01*
X1066039Y278594D01*
X1066032Y278641D01*
X1066033Y278689D01*
X1066012Y278762D01*
X1066000Y278837D01*
X1065977Y278879D01*
X1065963Y278925D01*
X1065920Y278987D01*
X1065884Y279054D01*
X1065850Y279087D01*
X1065822Y279126D01*
X1065761Y279171D01*
X1065706Y279224D01*
X1065663Y279244D01*
X1065624Y279272D01*
X1065552Y279295D01*
X1065483Y279327D01*
X1065435Y279332D01*
X1065390Y279347D01*
X1065314Y279346D01*
X1065239Y279354D01*
X1065192Y279344D01*
X1065144Y279343D01*
X1065072Y279318D01*
X1064998Y279302D01*
X1064957Y279277D01*
X1064912Y279261D01*
X1064852Y279215D01*
X1064787Y279176D01*
X1064756Y279139D01*
X1064718Y279110D01*
X1064642Y279006D01*
X1064627Y278989D01*
X1064625Y278983D01*
X1064619Y278975D01*
X1062742Y275724D01*
X1057776Y270758D01*
X1051695Y267247D01*
X1044911Y265429D01*
X1037889Y265429D01*
X1031105Y267247D01*
X1025024Y270758D01*
X1020058Y275724D01*
X1016547Y281805D01*
X1014729Y288589D01*
X1014729Y295611D01*
X1016547Y302395D01*
X1020058Y308476D01*
X1025024Y313442D01*
X1031105Y316953D01*
X1036665Y318443D01*
X1036687Y318453D01*
X1036710Y318457D01*
X1036798Y318503D01*
X1036889Y318544D01*
X1036906Y318560D01*
X1036928Y318572D01*
X1036996Y318644D01*
X1037069Y318711D01*
X1037080Y318732D01*
X1037097Y318750D01*
X1037139Y318840D01*
X1037186Y318927D01*
X1037191Y318951D01*
X1037201Y318973D01*
X1037212Y319072D01*
X1037229Y319170D01*
X1037225Y319194D01*
X1037228Y319217D01*
X1037207Y319315D01*
X1037192Y319413D01*
X1037181Y319434D01*
X1037176Y319458D01*
X1037124Y319543D01*
X1037079Y319632D01*
X1037062Y319648D01*
X1037049Y319669D01*
X1036974Y319734D01*
X1036902Y319803D01*
X1036881Y319813D01*
X1036862Y319829D01*
X1036770Y319866D01*
X1036681Y319909D01*
X1036657Y319912D01*
X1036634Y319921D01*
X1036468Y319939D01*
X703432Y319939D01*
X703409Y319935D01*
X703385Y319938D01*
X703288Y319916D01*
X703190Y319900D01*
X703168Y319888D01*
X703145Y319883D01*
X703060Y319831D01*
X702972Y319784D01*
X702956Y319767D01*
X702935Y319754D01*
X702871Y319678D01*
X702803Y319606D01*
X702793Y319584D01*
X702777Y319566D01*
X702741Y319473D01*
X702699Y319383D01*
X702697Y319359D01*
X702688Y319337D01*
X702683Y319237D01*
X702672Y319139D01*
X702677Y319115D01*
X702676Y319091D01*
X702703Y318995D01*
X702724Y318898D01*
X702737Y318878D01*
X702743Y318854D01*
X702800Y318772D01*
X702851Y318687D01*
X702869Y318671D01*
X702883Y318652D01*
X702962Y318592D01*
X703038Y318527D01*
X703060Y318518D01*
X703079Y318504D01*
X703235Y318443D01*
X708795Y316953D01*
X714876Y313442D01*
X719842Y308476D01*
X723353Y302395D01*
X725171Y295611D01*
X725171Y288589D01*
X723353Y281805D01*
X719842Y275724D01*
X714876Y270758D01*
X708795Y267247D01*
X702011Y265429D01*
X694989Y265429D01*
X688205Y267247D01*
X682124Y270758D01*
X677158Y275724D01*
X673647Y281805D01*
X672057Y287738D01*
X672047Y287760D01*
X672043Y287783D01*
X671997Y287871D01*
X671956Y287962D01*
X671940Y287980D01*
X671928Y288001D01*
X671856Y288069D01*
X671789Y288142D01*
X671768Y288154D01*
X671750Y288170D01*
X671660Y288212D01*
X671573Y288260D01*
X671549Y288264D01*
X671527Y288274D01*
X671428Y288285D01*
X671330Y288302D01*
X671306Y288298D01*
X671283Y288301D01*
X671185Y288280D01*
X671087Y288265D01*
X671066Y288254D01*
X671042Y288249D01*
X670957Y288198D01*
X670868Y288152D01*
X670852Y288135D01*
X670831Y288123D01*
X670766Y288047D01*
X670697Y287976D01*
X670687Y287954D01*
X670671Y287936D01*
X670634Y287843D01*
X670591Y287754D01*
X670588Y287730D01*
X670579Y287707D01*
X670561Y287541D01*
X670561Y93459D01*
X670565Y93435D01*
X670562Y93412D01*
X670584Y93315D01*
X670600Y93217D01*
X670612Y93195D01*
X670617Y93172D01*
X670669Y93087D01*
X670716Y92999D01*
X670733Y92983D01*
X670746Y92962D01*
X670822Y92898D01*
X670894Y92830D01*
X670916Y92820D01*
X670934Y92804D01*
X671027Y92768D01*
X671117Y92726D01*
X671141Y92723D01*
X671163Y92715D01*
X671263Y92710D01*
X671361Y92699D01*
X671385Y92704D01*
X671409Y92703D01*
X671505Y92730D01*
X671602Y92751D01*
X671622Y92764D01*
X671646Y92770D01*
X671728Y92827D01*
X671813Y92877D01*
X671829Y92896D01*
X671848Y92909D01*
X671908Y92989D01*
X671973Y93064D01*
X671982Y93087D01*
X671996Y93106D01*
X672057Y93262D01*
X673647Y99195D01*
X677158Y105276D01*
X682124Y110242D01*
X688205Y113753D01*
X694989Y115571D01*
X702011Y115571D01*
X708795Y113753D01*
X714876Y110242D01*
X719842Y105276D01*
X723353Y99195D01*
X725171Y92411D01*
X725171Y85389D01*
X723353Y78605D01*
X719842Y72524D01*
X714876Y67558D01*
X708795Y64047D01*
X702011Y62229D01*
X694989Y62229D01*
X688205Y64047D01*
X682124Y67558D01*
X677158Y72524D01*
X673647Y78605D01*
X672057Y84538D01*
X672047Y84560D01*
X672043Y84583D01*
X671997Y84671D01*
X671956Y84762D01*
X671940Y84780D01*
X671928Y84801D01*
X671856Y84869D01*
X671789Y84942D01*
X671768Y84954D01*
X671750Y84970D01*
X671660Y85012D01*
X671573Y85060D01*
X671549Y85064D01*
X671527Y85074D01*
X671428Y85085D01*
X671330Y85102D01*
X671306Y85098D01*
X671283Y85101D01*
X671185Y85080D01*
X671087Y85065D01*
X671066Y85054D01*
X671042Y85049D01*
X670957Y84998D01*
X670868Y84952D01*
X670852Y84935D01*
X670831Y84923D01*
X670766Y84847D01*
X670697Y84776D01*
X670687Y84754D01*
X670671Y84736D01*
X670634Y84643D01*
X670591Y84554D01*
X670588Y84530D01*
X670579Y84507D01*
X670561Y84341D01*
X670561Y10922D01*
X670564Y10902D01*
X670562Y10883D01*
X670584Y10781D01*
X670600Y10679D01*
X670610Y10662D01*
X670614Y10642D01*
X670667Y10553D01*
X670716Y10462D01*
X670730Y10448D01*
X670740Y10431D01*
X670819Y10364D01*
X670894Y10292D01*
X670912Y10284D01*
X670927Y10271D01*
X671023Y10232D01*
X671117Y10189D01*
X671137Y10187D01*
X671155Y10179D01*
X671322Y10161D01*
X1065278Y10161D01*
X1065298Y10164D01*
G37*
%LPC*%
G36*
X903058Y48033D02*
X903058Y48033D01*
X899949Y51142D01*
X899949Y55097D01*
X899948Y55108D01*
X899948Y55114D01*
X899941Y55145D01*
X899935Y55188D01*
X899927Y55278D01*
X899915Y55308D01*
X899910Y55340D01*
X899867Y55421D01*
X899831Y55505D01*
X899805Y55537D01*
X899794Y55558D01*
X899771Y55580D01*
X899726Y55636D01*
X898408Y56954D01*
X898334Y57007D01*
X898264Y57067D01*
X898234Y57079D01*
X898208Y57098D01*
X898121Y57125D01*
X898036Y57159D01*
X897995Y57163D01*
X897973Y57170D01*
X897941Y57169D01*
X897869Y57177D01*
X893914Y57177D01*
X890805Y60286D01*
X890805Y64242D01*
X890804Y64248D01*
X890804Y64249D01*
X890803Y64252D01*
X890791Y64332D01*
X890783Y64423D01*
X890771Y64452D01*
X890766Y64484D01*
X890723Y64565D01*
X890687Y64649D01*
X890661Y64681D01*
X890650Y64702D01*
X890627Y64724D01*
X890582Y64780D01*
X855764Y99598D01*
X855736Y99626D01*
X855662Y99679D01*
X855592Y99739D01*
X855562Y99751D01*
X855536Y99770D01*
X855449Y99797D01*
X855364Y99831D01*
X855323Y99835D01*
X855301Y99842D01*
X855269Y99841D01*
X855197Y99849D01*
X854290Y99849D01*
X851181Y102958D01*
X851181Y107354D01*
X854290Y110463D01*
X858686Y110463D01*
X861795Y107354D01*
X861795Y102958D01*
X860872Y102035D01*
X860860Y102019D01*
X860844Y102006D01*
X860815Y101960D01*
X860795Y101939D01*
X860780Y101907D01*
X860728Y101835D01*
X860722Y101816D01*
X860711Y101799D01*
X860686Y101699D01*
X860656Y101600D01*
X860656Y101580D01*
X860651Y101561D01*
X860659Y101458D01*
X860662Y101354D01*
X860669Y101335D01*
X860671Y101316D01*
X860711Y101221D01*
X860747Y101123D01*
X860759Y101107D01*
X860767Y101089D01*
X860872Y100958D01*
X893816Y68014D01*
X893890Y67961D01*
X893960Y67901D01*
X893990Y67889D01*
X894016Y67870D01*
X894103Y67843D01*
X894188Y67809D01*
X894229Y67805D01*
X894251Y67798D01*
X894283Y67799D01*
X894354Y67791D01*
X898310Y67791D01*
X901419Y64682D01*
X901419Y60727D01*
X901433Y60636D01*
X901441Y60546D01*
X901453Y60516D01*
X901458Y60484D01*
X901501Y60403D01*
X901537Y60319D01*
X901563Y60287D01*
X901574Y60266D01*
X901597Y60244D01*
X901642Y60188D01*
X902960Y58870D01*
X903034Y58817D01*
X903104Y58757D01*
X903134Y58745D01*
X903160Y58726D01*
X903247Y58699D01*
X903332Y58665D01*
X903373Y58661D01*
X903395Y58654D01*
X903427Y58655D01*
X903499Y58647D01*
X907454Y58647D01*
X910563Y55538D01*
X910563Y51142D01*
X907454Y48033D01*
X903058Y48033D01*
G37*
%LPD*%
%LPC*%
G36*
X1036297Y13080D02*
X1036297Y13080D01*
X1029080Y20297D01*
X1029080Y30503D01*
X1036297Y37720D01*
X1046503Y37720D01*
X1053720Y30503D01*
X1053720Y20297D01*
X1046503Y13080D01*
X1036297Y13080D01*
G37*
%LPD*%
%LPC*%
G36*
X680697Y13080D02*
X680697Y13080D01*
X673480Y20297D01*
X673480Y30503D01*
X680697Y37720D01*
X690903Y37720D01*
X698120Y30503D01*
X698120Y20297D01*
X690903Y13080D01*
X680697Y13080D01*
G37*
%LPD*%
%LPC*%
G36*
X944206Y57177D02*
X944206Y57177D01*
X941097Y60286D01*
X941097Y64241D01*
X941096Y64248D01*
X941096Y64249D01*
X941095Y64253D01*
X941083Y64332D01*
X941075Y64422D01*
X941063Y64452D01*
X941058Y64484D01*
X941015Y64565D01*
X940979Y64649D01*
X940953Y64681D01*
X940942Y64702D01*
X940919Y64724D01*
X940874Y64780D01*
X895360Y110294D01*
X895286Y110347D01*
X895216Y110407D01*
X895186Y110419D01*
X895160Y110438D01*
X895073Y110465D01*
X894988Y110499D01*
X894947Y110503D01*
X894925Y110510D01*
X894893Y110509D01*
X894821Y110517D01*
X890866Y110517D01*
X887757Y113626D01*
X887757Y118022D01*
X890866Y121131D01*
X895262Y121131D01*
X898371Y118022D01*
X898371Y114067D01*
X898385Y113976D01*
X898393Y113886D01*
X898405Y113856D01*
X898410Y113824D01*
X898453Y113743D01*
X898489Y113659D01*
X898515Y113627D01*
X898526Y113606D01*
X898549Y113584D01*
X898594Y113528D01*
X944108Y68014D01*
X944182Y67961D01*
X944252Y67901D01*
X944282Y67889D01*
X944308Y67870D01*
X944395Y67843D01*
X944480Y67809D01*
X944521Y67805D01*
X944543Y67798D01*
X944575Y67799D01*
X944647Y67791D01*
X948602Y67791D01*
X951711Y64682D01*
X951711Y60286D01*
X948602Y57177D01*
X944206Y57177D01*
G37*
%LPD*%
%LPC*%
G36*
X759827Y166877D02*
X759827Y166877D01*
X755813Y168540D01*
X752740Y171613D01*
X751077Y175627D01*
X751077Y179973D01*
X752740Y183987D01*
X755813Y187060D01*
X759827Y188723D01*
X764173Y188723D01*
X768187Y187060D01*
X771260Y183987D01*
X772923Y179973D01*
X772923Y175627D01*
X771260Y171613D01*
X768187Y168540D01*
X764173Y166877D01*
X759827Y166877D01*
G37*
%LPD*%
%LPC*%
G36*
X948186Y218185D02*
X948186Y218185D01*
X942085Y224286D01*
X942085Y232914D01*
X948186Y239015D01*
X956814Y239015D01*
X962915Y232914D01*
X962915Y224286D01*
X956814Y218185D01*
X948186Y218185D01*
G37*
%LPD*%
%LPC*%
G36*
X1049786Y192785D02*
X1049786Y192785D01*
X1043685Y198886D01*
X1043685Y207514D01*
X1049786Y213615D01*
X1058414Y213615D01*
X1064515Y207514D01*
X1064515Y198886D01*
X1058414Y192785D01*
X1049786Y192785D01*
G37*
%LPD*%
%LPC*%
G36*
X948186Y167385D02*
X948186Y167385D01*
X942085Y173486D01*
X942085Y182114D01*
X948186Y188215D01*
X956814Y188215D01*
X962915Y182114D01*
X962915Y173486D01*
X956814Y167385D01*
X948186Y167385D01*
G37*
%LPD*%
%LPC*%
G36*
X763523Y153923D02*
X763523Y153923D01*
X763523Y164246D01*
X764796Y164045D01*
X766583Y163464D01*
X768257Y162611D01*
X769778Y161506D01*
X771106Y160178D01*
X772211Y158657D01*
X773064Y156983D01*
X773645Y155196D01*
X773846Y153923D01*
X763523Y153923D01*
G37*
%LPD*%
%LPC*%
G36*
X750154Y153923D02*
X750154Y153923D01*
X750355Y155196D01*
X750936Y156983D01*
X751789Y158657D01*
X752894Y160178D01*
X754222Y161506D01*
X755743Y162611D01*
X757417Y163464D01*
X759204Y164045D01*
X760477Y164246D01*
X760477Y153923D01*
X750154Y153923D01*
G37*
%LPD*%
%LPC*%
G36*
X763523Y150877D02*
X763523Y150877D01*
X773846Y150877D01*
X773645Y149604D01*
X773064Y147817D01*
X772211Y146143D01*
X771106Y144622D01*
X769778Y143294D01*
X768257Y142189D01*
X766583Y141336D01*
X764796Y140755D01*
X763523Y140554D01*
X763523Y150877D01*
G37*
%LPD*%
%LPC*%
G36*
X759204Y140755D02*
X759204Y140755D01*
X757417Y141336D01*
X755743Y142189D01*
X754222Y143294D01*
X752894Y144622D01*
X751789Y146143D01*
X750936Y147817D01*
X750355Y149604D01*
X750154Y150877D01*
X760477Y150877D01*
X760477Y140554D01*
X759204Y140755D01*
G37*
%LPD*%
%LPC*%
G36*
X761999Y152399D02*
X761999Y152399D01*
X761999Y152401D01*
X762001Y152401D01*
X762001Y152399D01*
X761999Y152399D01*
G37*
%LPD*%
D10*
X762000Y177800D03*
X762000Y152400D03*
D11*
X1041400Y25400D03*
X685800Y25400D03*
D12*
X952500Y228600D03*
X952500Y177800D03*
X1054100Y203200D03*
D13*
X873252Y102108D03*
X792480Y306324D03*
X978408Y73152D03*
X908304Y164592D03*
D14*
X896112Y62484D02*
X905256Y53340D01*
X856488Y102108D02*
X856488Y105156D01*
X856488Y102108D02*
X896112Y62484D01*
D13*
X896112Y62484D03*
X905256Y53340D03*
X856488Y105156D03*
D14*
X893064Y115824D02*
X946404Y62484D01*
D13*
X893064Y115824D03*
X946404Y62484D03*
M02*
