Screaming Circuits SMD component position file.
Created by Centroid_ScreamingCircuits_smd.ulp 1.2.0.

Centroid Data for pc board: "untitled.brd" as of: 10/14/2017 12:08 PM
Measurements are in inches. Comma delimited
Only surface mount components included

RefDes,Layer,LocationX,LocationY,Rotation
C1,Top,0.600,0.200,270
C2,Top,0.600,0.400,90
C3,Top,0.300,1.100,270
C4,Top,0.700,1.300,180
C5,Top,1.100,1.650,0
C6,Top,0.450,1.350,180
C7,Top,0.600,0.850,270
C8,Top,0.450,0.900,180
C9,Top,1.050,1.300,180
C10,Top,0.900,0.950,270
D1,Top,1.350,0.750,0
D4,Top,1.350,1.150,180
IC4,Top,0.400,0.700,0
JP1,Top,0.450,1.700,0
L1,Top,0.900,1.650,180
Q1,Top,0.600,0.650,0
R1,Top,0.550,0.100,180
R2,Top,0.150,0.350,180
R3,Top,0.700,1.450,0
R4,Top,0.700,1.350,180
R5,Top,0.800,0.900,0
R6,Top,0.650,1.200,270
R7,Top,0.500,1.050,270
R8,Top,0.500,1.200,270
R9,Top,1.150,1.150,270
R10,Top,0.700,1.550,0
R11,Top,0.700,1.650,0
R12,Top,1.000,0.750,90
R13,Top,0.350,0.100,180
SJ1,Top,0.800,1.800,90
SJ2,Top,0.700,1.800,90
SW1,Top,1.200,0.950,180
T1,Top,0.150,0.500,90
TIMING,Top,0.400,0.300,0
U1,Top,0.800,1.050,0
U2,Top,0.900,1.500,90
X1,Top,1.250,1.400,90
